TITRE: erreur
DATE: 2014-02-15
URL: http://mboaconnect.com/articles/2014/02/15/c%25C3%25B4te-d%25E2%2580%2599ivoire-michel-gbagbo-arr%25C3%25AAt%25C3%25A9-et-conduit-%25C3%25A0-la-dst
PRINCIPAL: 0
TEXT:
erreur